%YAML 1.1
%TAG !u! tag:unity3d.com,2011:
--- !u!221 &22100000
AnimatorOverrideController:
  m_ObjectHideFlags: 0
  m_PrefabParentObject: {fileID: 0}
  m_PrefabInternal: {fileID: 0}
  m_Name: Choice 1
  m_Controller: {fileID: 9100000, guid: 6ff5fb34df4d67e4d89711e353adfead, type: 2}
  m_Clips:
  - m_OriginalClip: {fileID: 7400000, guid: 074252b9f561a42408547dc7f08804a0, type: 2}
    m_OverrideClip: {fileID: 7400000, guid: 184aafc0763ce2848b07b05104896602, type: 2}
