%YAML 1.1
%TAG !u! tag:unity3d.com,2011:
--- !u!1045 &1
EditorBuildSettings:
  m_ObjectHideFlags: 0
  serializedVersion: 2
  m_Scenes:
  - enabled: 1
    path: Assets/_Scenes/Base.unity
    guid: 83e14e7763894ab4d97840ddc6e3f72e
  - enabled: 1
    path: Assets/_Scenes/Room A.unity
    guid: 9fa7990a67897ff41aac036f73856697
  - enabled: 1
    path: Assets/_Scenes/Room B.unity
    guid: a618ffe7e7cd6d44aab2e8b7d0068902
  - enabled: 1
    path: Assets/_Scenes/Room C.unity
    guid: fa23a577079f3f2418b4cbacf37b6651
  - enabled: 1
    path: Assets/_Scenes/Test Room.unity
    guid: ffee8750b876ee244a905d49dc5c1163
